0000001AGRIS                              FINBIDJA        103910300      9999999
9450305AGRIS PUSAT, JKT                                   103910300      9999999
9450001AGRIS RTGS                         FINBIDJA        103910300      9999999
9450017AGRIS, BDLPG                                       139003900      9999999
9450046AGRIS, MDN                                         133003300      9999999
9450059AGRIS, SMRG                                        109010900      1758137
9450020AGRIS, SOLO                                        109961000      9999999
4940014AGRO GD ASTEK, JKT                                1103940300      7477003
4940014AGRO GD MANGGALA W, JKT                           1103940300      7477002
4940027AGRO KOKO PERDANA, SBY                            2112001200      7477050
4940014AGRO MUARA BARU, JKT                              1103940300      7477001
4940014AGRO PASAR MINGGU, JKT                            1103940300      7477004
4940014AGRO PUSAT, JKT                                   1103940300      9990002
4940014AGRO TEUKU CIKDITIRO, JKT                         1103940300      9990003
4940030AGRO, MDN                                         2133003300      7477051
4940043AGRO, PKBR                                        2135003500      7477052
0000001AGRONIAGA                          AGTBIDJA        103910300      9990005
4940014AGRONIAGA GEDUNG AST, JKT                         1103940300      7477003
4940014AGRONIAGA MANGGALA W, JKT                         1103940300      7477002
4940014AGRONIAGA MUARA BARU, JKT                         1103940300      7477001
4940014AGRONIAGA P MINGGU, JKT                           1103940300      7477004
4940014AGRONIAGA PUSAT, JKT                              1103940300      9990006
4940001AGRONIAGA RTGS                     AGTBIDJA        103910300      9999999
4940056AGRONIAGA, BDG                                    2101000100      7477052
4940072AGRONIAGA, BLKPPN                                  154925700      9999999
4940098AGRONIAGA, JAMBI                                   131003100      1608467
4940069AGRONIAGA, SMRG                                    109000900      9999999
5310012AMIN PUSAT, SBY                                   1112001200      7543050
5310012AMIN SONGOYUDAN, SBY                              1112001200      7543051
0000001ANDARA                             RIPAIDJ1        172007200      9999999
4660080ANDARA BAPINDO, JKT                                103910300      0937146
4660001ANDARA RTGS                        RIPAIDJ1        172007200      9999999
4660019ANDARA, DPSR                                       172007200      9999999
4660022ANDARA, MTRM                                       171007100      9999999
5310012ANGLOMAS INT PUSAT, SBY                            112001200      9999999
5310001ANGLOMAS INT RTGS                  LOMAIDJ1        112001200      9999999
0000001ANGLOMAS INTERNASIONAL             LOMAIDJ1       0000000000      9990016
0000001ANTAR DAERAH                       ANTDIDJD        103910300      9999999
0880001ANTAR DAERAH RTGS                  ANTDIDJD        172007200      9999999
0880042ANTAR DAERAH, DPSR                                2172007200      0309050
0880055ANTAR DAERAH, JKT                                 2103910300      9990020
0000000ANZ PANIN                          ANZBIDJX                       9990021
0610001ANZ PANIN RTGS                     ANZBIDJX        103910300      9999999
0610306ANZ PANIN SUDIRMAN, JKT                           2103910300      9990022
0610102ANZ PANIN, BLKPPN                                  154925700      9999999
0610128ANZ PANIN, DPSR                                    172007200      9999999
0610306ANZ PANIN, JKT                                    2103940300      7701000
0610131ANZ PANIN, MANADO                                  162006200      9999999
0610018ANZ PANIN, MDN                                     133003300      9999999
0610173ANZ PANIN, MKSR                                    161006100      9999999
0610092ANZ PANIN, PLBG                                    136003600      9999999
0610076ANZ PANIN, SMRG                                    109000900      0931004
0610157ANZ PANIN, SOLO                                    109961000      9999999
0000001ARTAJASA PEMBAYARAN                ATJSIDJ2       0000000000      9990023
0000000ARTHA GRAHA                        ARTGIDJA                       9990024
0370167ARTHA GRAHA A AFRIKA, BDG                         2101000100      0305050
0370125ARTHA GRAHA ATRIUM SENEN, JKT                     2103910300      9990025
0370167ARTHA GRAHA BRAGA, BDG                            2101000100      0305031
0370206ARTHA GRAHA BUBUTAN, SBY                          2112001200      0305052
0370125ARTHA GRAHA H BRBDR, JKT                          2103910300      0312011
0370219ARTHA GRAHA KARET, SBY                            2112001200      0305002
0370219ARTHA GRAHA KDNGDORO, SBY                         2112001200      0305028
0370060ARTHA GRAHA KELAPA GADING, JKT                    2103920300      0312005
0370206ARTHA GRAHA KRTAJAYA, SBY                         2112001200      0305055
0370125ARTHA GRAHA KWITANG, JKT                           103910300      9999999
0370073ARTHA GRAHA M BESAR, JKT                          2103910300      9990026
0370073ARTHA GRAHA M DUA, JKT                            2103910300      0312004
0370303ARTHA GRAHA MATRAMAN, JKT                          103940300      0305036
0370138ARTHA GRAHA MELAWAI, JKT                          2103940300      0312002
0370219ARTHA GRAHA NGAGEL, SBY                           2112001200      0305056
0370219ARTHA GRAHA P ATOM, SBY                           2112001200      0305057
0370060ARTHA GRAHA P GADUNG, JKT                         2103910300      0305022
0370086ARTHA GRAHA P JYKRTA, JKT                         2103910300      7359006
0370028ARTHA GRAHA PUSAT, JKT                            2103940300      0312000
0370329ARTHA GRAHA PUSAT, MDN                            2133003300      0305058
0370251ARTHA GRAHA PUSAT, MKSR                           2161006100      0305059
0370099ARTHA GRAHA ROXY, JKT                              103910300      9999999
0370001ARTHA GRAHA RTGS                   ARTGIDJA        103910300      9999999
0370125ARTHA GRAHA SENEN, JKT                            2103910300      9990027
0370028ARTHA GRAHA SUDIRMAN, JKT                         2103940300      9990028
0370219ARTHA GRAHA SUKOMNGL, SBY                         2112001200      0305060
0370044ARTHA GRAHA SUNTER, JKT                           2103920300      0312003
0370086ARTHA GRAHA SURYO P, JKT                          2103910300      7359009
0370028ARTHA GRAHA T ABANG, JKT                          2103940300      9990029
0370028ARTHA GRAHA TGERANG, JKT                          2103940300      7359008
0370280ARTHA GRAHA, AMBON                                2181008100      0305061
0370358ARTHA GRAHA, BATAM                                 135943700      9999999
0370332ARTHA GRAHA, BDLPG                                2139003900      0305062
0370361ARTHA GRAHA, BGR                                   101920308      1025436
0370183ARTHA GRAHA, CRB                                  2101941400      0305063
0370222ARTHA GRAHA, DPSR                                 2172007200      0305064
0370248ARTHA GRAHA, KENDARI                              2169006900      0305065
0370316ARTHA GRAHA, KUPANG                                174007400      9999999
0370235ARTHA GRAHA, MANADO                               0162006200      0305066
0370329ARTHA GRAHA, MDN                                   133003300      9999999
0370251ARTHA GRAHA, MKSR                                 2161006100      0305067
0370141ARTHA GRAHA, PKBR                                 2135003500      0305068
0370154ARTHA GRAHA, PLBG                                 2136003600      0305069
0370374ARTHA GRAHA, SAMARINDA                             154005400      1646313
0370196ARTHA GRAHA, SMRG                                 2109000900      0